[{"page":1,"pages":14,"per_page":5,"total":66,"sourceid":"2","lastupdated":"2026-04-08"},[{"indicator":{"id":"NY.GDP.MKTP.CD","value":"GDP (current US$)"},"country":{"id":"US","value":"United States"},"countryiso3code":"USA","date":"2025","value":null,"unit":"","obs_status":"","decimal":0},{"indicator":{"id":"NY.GDP.MKTP.CD","value":"GDP (current US$)"},"country":{"id":"US","value":"United States"},"countryiso3code":"USA","date":"2024","value":28750956130731.2,"unit":"","obs_status":"","decimal":0},{"indicator":{"id":"NY.GDP.MKTP.CD","value":"GDP (current US$)"},"country":{"id":"US","value":"United States"},"countryiso3code":"USA","date":"2023","value":27292170793214.4,"unit":"","obs_status":"","decimal":0},{"indicator":{"id":"NY.GDP.MKTP.CD","value":"GDP (current US$)"},"country":{"id":"US","value":"United States"},"countryiso3code":"USA","date":"2022","value":25604848907611,"unit":"","obs_status":"","decimal":0},{"indicator":{"id":"NY.GDP.MKTP.CD","value":"GDP (current US$)"},"country":{"id":"US","value":"United States"},"countryiso3code":"USA","date":"2021","value":23315080560000,"unit":"","obs_status":"","decimal":0}]]