[{"page":1,"pages":14,"per_page":5,"total":66,"sourceid":"2","lastupdated":"2026-04-08"},[{"indicator":{"id":"NY.GDP.MKTP.CD","value":"GDP (current US$)"},"country":{"id":"CN","value":"China"},"countryiso3code":"CHN","date":"2025","value":null,"unit":"","obs_status":"","decimal":0},{"indicator":{"id":"NY.GDP.MKTP.CD","value":"GDP (current US$)"},"country":{"id":"CN","value":"China"},"countryiso3code":"CHN","date":"2024","value":18743803170827.2,"unit":"","obs_status":"","decimal":0},{"indicator":{"id":"NY.GDP.MKTP.CD","value":"GDP (current US$)"},"country":{"id":"CN","value":"China"},"countryiso3code":"CHN","date":"2023","value":18270356654533.2,"unit":"","obs_status":"","decimal":0},{"indicator":{"id":"NY.GDP.MKTP.CD","value":"GDP (current US$)"},"country":{"id":"CN","value":"China"},"countryiso3code":"CHN","date":"2022","value":18316765021690.2,"unit":"","obs_status":"","decimal":0},{"indicator":{"id":"NY.GDP.MKTP.CD","value":"GDP (current US$)"},"country":{"id":"CN","value":"China"},"countryiso3code":"CHN","date":"2021","value":18201698719564,"unit":"","obs_status":"","decimal":0}]]