[{"page":1,"pages":14,"per_page":5,"total":66,"sourceid":"2","lastupdated":"2026-04-08"},[{"indicator":{"id":"NY.GDP.MKTP.CD","value":"GDP (current US$)"},"country":{"id":"1W","value":"World"},"countryiso3code":"WLD","date":"2025","value":null,"unit":"","obs_status":"","decimal":0},{"indicator":{"id":"NY.GDP.MKTP.CD","value":"GDP (current US$)"},"country":{"id":"1W","value":"World"},"countryiso3code":"WLD","date":"2024","value":110982661180013,"unit":"","obs_status":"","decimal":0},{"indicator":{"id":"NY.GDP.MKTP.CD","value":"GDP (current US$)"},"country":{"id":"1W","value":"World"},"countryiso3code":"WLD","date":"2023","value":106741647821064,"unit":"","obs_status":"","decimal":0},{"indicator":{"id":"NY.GDP.MKTP.CD","value":"GDP (current US$)"},"country":{"id":"1W","value":"World"},"countryiso3code":"WLD","date":"2022","value":102251524725531,"unit":"","obs_status":"","decimal":0},{"indicator":{"id":"NY.GDP.MKTP.CD","value":"GDP (current US$)"},"country":{"id":"1W","value":"World"},"countryiso3code":"WLD","date":"2021","value":98140475264975.8,"unit":"","obs_status":"","decimal":0}]]